/* XPM */
static char * icono_xpm[] = {
"32 33 220 2",
"  	c None",
" .	c #FFFFFF",
" +	c #F4FFF4",
" @	c #F0FFF0",
" #	c #E4FFA2",
" $	c #B6FFB6",
" %	c #FBFFFB",
" &	c #E3FFE3",
" *	c #4DFF4D",
" =	c #47FF37",
" -	c #D0FF2B",
" ;	c #2DFF2D",
" >	c #A0FFA0",
" ,	c #CCFFCC",
" '	c #26FF26",
" )	c #04FF04",
" !	c #47FF07",
" ~	c #D0FF24",
" {	c #2FFF2F",
" ]	c #D6FFD6",
" ^	c #D7FFD7",
" /	c #25FF25",
" (	c #00FF00",
" _	c #47FF00",
" :	c #D0FF23",
" <	c #4FFF4F",
" [	c #E5FFE5",
" }	c #46FF46",
" |	c #01FF01",
" 1	c #47FF08",
" 2	c #02FF02",
" 3	c #73FF73",
" 4	c #F8FFF8",
" 5	c #F2FFF2",
" 6	c #65FF65",
" 7	c #47FF38",
" 8	c #16FF16",
" 9	c #A5FFA5",
" 0	c #60FF60",
" a	c #47FF47",
" b	c #D0FF3C",
" c	c #2DFF1F",
" d	c #11FF11",
" e	c #9BFF9B",
" f	c #FAFFFA",
" g	c #F1FFF1",
" h	c #76FF76",
" i	c #D0FF5B",
" j	c #2DFF00",
" k	c #15FF15",
" l	c #C4FFC4",
" m	c #67FF67",
" n	c #2AFF2A",
" o	c #E0FFE0",
" p	c #FCFFFC",
" q	c #BDFFBD",
" r	c #D5FF5B",
" s	c #33FF00",
" t	c #03FF03",
" u	c #74FF74",
" v	c #EDF0ED",
" w	c #EFEFEF",
" x	c #C5C5C5",
" y	c #616161",
" z	c #C9C9C9",
" A	c #1FFF1F",
" B	c #58FF58",
" C	c #F7FF6E",
" D	c #5BFF15",
" E	c #55DA55",
" F	c #5E645E",
" G	c #5F5F5F",
" H	c #424242",
" I	c #5C5C5C",
" J	c #ABABAB",
" K	c #F9F9F9",
" L	c #D1FFD1",
" M	c #84FF84",
" N	c #C3FFC3",
" O	c #FEFF88",
" P	c #A0FF71",
" Q	c #12FF12",
" R	c #5BFF5B",
" S	c #D2FFD2",
" T	c #EDEFED",
" U	c #6F6F6F",
" V	c #0C0C0C",
" W	c #232323",
" X	c #000000",
" Y	c #ACACAC",
" Z	c #FFFF89",
" `	c #ADFF7F",
". 	c #3BFF3B",
"..	c #F3FFF3",
".+	c #E0E0E0",
".@	c #323232",
".#	c #010101",
".$	c #151515",
".%	c #C1C1C1",
".&	c #F8FFCA",
".*	c #EAFFEA",
".=	c #EBF0E4",
".-	c #E5CBCB",
".;	c #DBB7B7",
".>	c #D0A2A2",
".,	c #A35E5E",
".'	c #582C2C",
".)	c #320E0E",
".!	c #461B1B",
".~	c #BC9C9C",
".{	c #FEFDFD",
".]	c #E2C5C5",
".^	c #D6ADAD",
"./	c #D1A4A4",
".(	c #B66D6D",
"._	c #DFC031",
".:	c #BB794B",
".<	c #AD5B5B",
".[	c #A34949",
".}	c #8B1919",
".|	c #7F0000",
".1	c #D8B3B3",
".2	c #F8F1F1",
".3	c #BC7A7A",
".4	c #A75151",
".5	c #9A3737",
".6	c #912500",
".7	c #860E00",
".8	c #A85252",
".9	c #F5EBEB",
".0	c #F4EAEA",
".a	c #9D3C3C",
".b	c #810404",
".c	c #D3A7A7",
".d	c #F9F3F3",
".e	c #B26666",
".f	c #800303",
".g	c #820707",
".h	c #E9D3D3",
".i	c #DFC0C0",
".j	c #871010",
".k	c #A34848",
".l	c #A34747",
".m	c #E5CCCC",
".n	c #902222",
".o	c #C68E8E",
".p	c #FBF8F8",
".q	c #CFA0A0",
".r	c #9B3939",
".s	c #F2E6E6",
".t	c #912424",
".u	c #860F0F",
".v	c #7A0008",
".w	c #69002A",
".x	c #7B0006",
".y	c #C38888",
".z	c #FDFDFF",
".A	c #F9F9FF",
".B	c #F8F8FF",
".C	c #FBFBFF",
".D	c #E0E0FF",
".E	c #C5BFF2",
".F	c #804588",
".G	c #650032",
".H	c #5B0046",
".I	c #6B0027",
".J	c #E1C3C3",
".K	c #ECECFF",
".L	c #B0B0FF",
".M	c #A1A1FF",
".N	c #C7C7FF",
".O	c #D5D3FC",
".P	c #A26483",
".Q	c #800A11",
".R	c #871214",
".S	c #B57C8D",
".T	c #F7F6FC",
".U	c #FEFEFF",
".V	c #FAFAFF",
".W	c #D7D7FF",
".X	c #F5F5FF",
".Y	c #CDCDFF",
".Z	c #C99CA3",
".`	c #680F4C",
"+ 	c #7A0009",
"+.	c #AB6E84",
"++	c #968FF1",
"+@	c #BEBEFF",
"+#	c #C0C0FF",
"+$	c #C6C6FF",
"+%	c #F0F0FF",
"+&	c #D2D2FF",
"+*	c #EAEAFF",
"+=	c #C1C1FF",
"+-	c #9E9EFF",
"+;	c #ADADFF",
"+>	c #A9A9FF",
"+,	c #9D9DFF",
"+'	c #D4D4FF",
"+)	c #C1C0FD",
"+!	c #9189EF",
"+~	c #B6A0D1",
"+{	c #8F72C4",
"+]	c #983940",
"+^	c #983333",
"+/	c #932929",
"+(	c #8C1B1B",
"+_	c #A0576C",
"+:	c #D2CAEE",
"+<	c #F6F6FF",
"+[	c #F1F1FF",
"+}	c #A8A8FF",
"+|	c #A3A3FF",
"+1	c #D9D9FF",
"+2	c #D1D1FF",
"+3	c #D5D5FF",
"+4	c #DADAFF",
"+5	c #E2C6C6",
"+6	c #D3D3FF",
"+7	c #D6D6FF",
" . . . . . . . . . . . . . . . . . . . . . . . . . . . . . . . .",
" . . . . . . . . . . . . . . . . . . . . . . . . . . . . . . . .",
" . . . . . . . . . . . . + @ # $ % . . . . . . . . . . . . . . .",
" . . . . . . . . . . . & * = - ; > . . . . . . . . . . . . . . .",
" . . . . . . . . . . , ' ) ! ~ ; { ] . . . . . . . . . . . . . .",
" . . . . . . . . . ^ / ( ( _ : ; ( < . . . . . . . . . . . . . .",
" . . . . . . . . [ } | ( ( 1 ~ ; ( 2 3 4 . . . . . . . . . . . .",
" . . . . . . . 5 6 ( ( ( ( 7 - ; ( ( 8 9 . . . . . . . . . . . .",
" . . . . . . 5 0 2 ( ( ( ( a b c ( ( ( d e f . . . . . . . . . .",
" . . . . . g h 2 ( ( ( ( ( a i j ( ( ( ( k l . . . . . . . . . .",
" . . . . . m ( ( ( ( ( ( ( a i j ( ( ( ( ( n o . . . . . . . . .",
" . . . p q d ( ( ( ( ( ( ( a r s ( ( ( ( ( t u v w w x y z . . .",
" . . . o A ( ( ( ( ( ( ( ( B C D ( ( ( ( { h E F G H I J K . . .",
" . . . L M M M M M M M M M N O P ( | Q R S T U V W X Y K . . . .",
" . . . . . . . . . . . . . . Z ` (.  $.. ..+.@ X.#.$.% . . . . .",
" . . . . . . . . . . . . . . Z.&.*.=.-.;.>.,.'.).).!.~ . . . . .",
" . . . . . . . ..{.].^.^./.(._.:.<.[.}.|.|.|.|.|.|.|.1 . . . . .",
" . . ..2.3.4.4.5.|.|.|.|.|.|.6.7.|.|.|.|.|.|.|.|.|.8.9 . . . . .",
" . . ..0.a.|.|.|.|.|.|.|.|.|.|.|.|.|.|.|.|.|.|.|.b.c . . . . . .",
" . . ..d.e.f.|.|.|.|.|.|.|.|.|.|.|.|.|.|.|.|.|.|.g.h . . . . . .",
" . . . ..i.j.|.|.|.|.|.|.|.|.|.|.|.|.|.|.|.|.|.|.j . . . . . . .",
" . . . . ..k.|.|.|.|.|.|.|.|.|.|.|.|.|.|.|.|.|.|.l . . . . . . .",
" . . . . ..m.n.|.|.|.|.|.|.|.|.|.|.|.|.|.|.|.|.b.o . . . . . . .",
" . . . . ..p.q.b.|.|.|.|.|.|.|.|.|.|.|.|.|.|.|.r.s . . . . . . .",
" . . . . . ..{.t.|.|.|.|.|.|.|.|.|.|.|.|.|.|.|.4 . . . . . . . .",
" . . . . . . ..>.u.|.v.w.x.|.|.|.|.|.|.|.|.|.|.y . . ..z.A.B.C .",
" . . . . . ..D.E.F.G.H.I.|.|.|.|.|.|.|.|.|.|.|.J . . ..K.L.M.N .",
" . . . . . ..K.D.O.P.Q.|.|.|.|.|.|.|.|.|.|.R.S.T.U.V . . . . . .",
" . . . . ..W ..X.Y.2.Z.`+ .|.|.|.|.|.|.|.|+.+++@+#+$ .+%+& . . .",
" . . .+*+=+-+;+>+,+'+)+!+~+{+]+^+/.}.}+(+_+:+<+[+*+=.N+}+|+1+& .",
" . . .+2+3.C . ..z.W.Y .+4 . . ..0+5+5.-.2 . . . . .+4 ..A+6+7 .",
" . . . . . . . . . . . . . . . . . . . . . . . . . . . . . . . .",
" . . . . . . . . . . . . . . . . . . . . . . . . . . . . . . . ."};
