Turbo Assembler	 Version 3.1	    13/12/96 18:22:41	    Page 1
fver.ASM



      1
      2					 ;=-=-=-=-=-=-=-=-=-=-=-=-=-=-=-=-=-=-=-=-=-=-=-=-=-=-=-=-=-=-=-=-=-=-=-=-=-=-=-;
      3					 ; Este	es el programa .com que	se va a	ejecutar
      4					 ; Tiene que cumplir ciertas reglas para que funcione como las siguientes.
      5					 ;=-=-=-=-=-=-=-=-=-=-=-=-=-=-=-=-=-=-=-=-=-=-=-=-=-=-=-=-=-=-=-=-=-=-=-=-=-=-=-;
      6
      7					 ;=-=-=-=-=-=-=-=-=-=-=-=-=-=-=-=-=-=-=-=-=-=-=-=-=-=-=-=-=-=-=-=-=-=-=-=-=-=-=-;
      8					 ; Simplified directives
      9					 ;=-=-=-=-=-=-=-=-=-=-=-=-=-=-=-=-=-=-=-=-=-=-=-=-=-=-=-=-=-=-=-=-=-=-=-=-=-=-=-;
     10					 WARN					; Warn All
     11					 MULTERRS				; Multiple Errors per line
     12					 IDEAL					; Entrar en modo IDEAL de TASM
     13	    0000			 MODEL TINY				; Tipo de modelo
     14					 LOCALS					; Permite usar saltos locales (@@)
     15					 JUMPS					; Automatiza los saltos	por si me paso
     16					 P386					; 386 o	superior
     17
     18					 ;=-=-=-=-=-=-=-=-=-=-=-=-=-=-=-=-=-=-=-=-=-=-=-=-=-=-=-=-=-=-=-=-=-=-=-=-=-=-=-;
     19					 ; Defines y Includes
     20					 ;=-=-=-=-=-=-=-=-=-=-=-=-=-=-=-=-=-=-=-=-=-=-=-=-=-=-=-=-=-=-=-=-=-=-=-=-=-=-=-;
     21		  =0002			 THISVERSION = 0002h			; Resident version
     22
     23					 ;=-=-=-=-=-=-=-=-=-=-=-=-=-=-=-=-=-=-=-=-=-=-=-=-=-=-=-=-=-=-=-=-=-=-=-=-=-=-=-;
     24					 ; Segmento de codigo
     25					 ; main()
     26					 ;=-=-=-=-=-=-=-=-=-=-=-=-=-=-=-=-=-=-=-=-=-=-=-=-=-=-=-=-=-=-=-=-=-=-=-=-=-=-=-;
     27	    0000			 CODESEG
     28					 STARTUPCODE				; Necesario p' compilar. Pero no hace
1    29	    0100			 @Startup:
     30										; en un	.com
     31	    0100  EB 2E				Jmp  Short Start		 ; Looping (2 bytes)
     32	    0102  5432				dw   'T2'			; Chequeo de programa
     33	    0104  0001				dw   0001h			; Format version
     34	    0106  ????				dw   ?				; Para llenar 8
     35					 ;;;	      12345678
     36	    0108  50 72	75 65 62 61 31+		db   'Prueba1 '			; Nombre de los	programas.
     37		  20
     38	    0110  50 72	75 65 62 61 32+		db   'Prueba2 '
     39		  20
     40	    0118  50 72	75 65 62 61 33+		db   'Prueba3 '
     41		  20
     42	    0120  50 72	75 65 62 61 34+		db   'Prueba4 '
     43		  20
     44	    0128  013Cr				dw   OFFSET Prog1
     45	    012A  014Er				dw   OFFSET Prog2
     46	    012C  0160r				dw   OFFSET Prog3
     47	    012E  0172r				dw   OFFSET Prog4
     48
     49
     50					 ;=-=-=-=-=-=-=-=-=-=-=-=-=-=-=-=-=-=-=-=-=-=-=-=-=-=-=-=-=-=-=-=-=-=-=-=-=-=-=-;
     51					 ;	Start
     52					 ;=-=-=-=-=-=-=-=-=-=-=-=-=-=-=-=-=-=-=-=-=-=-=-=-=-=-=-=-=-=-=-=-=-=-=-=-=-=-=-;
     53	    0130			 Start:
     54	    0130  B8 B800			mov  ax,0b800h
     55	    0133  8E D8				mov  ds,ax
     56	    0135  BE 0040			mov  si,40h
     57	    0138			 @@loop:
Turbo Assembler	 Version 3.1	    13/12/96 18:22:41	    Page 2
fver.ASM



     58	    0138  FE 04				inc  [BYTE PTR si]
     59					 ;	 int  08h
     60	    013A  EB FC				jmp  @@loop
     61
     62					 ;=-=-=-=-=-=-=-=-=-=-=-=-=-=-=-=-=-=-=-=-=-=-=-=-=-=-=-=-=-=-=-=-=-=-=-=-=-=-=-;
     63					 ;	Programa 1
     64					 ;=-=-=-=-=-=-=-=-=-=-=-=-=-=-=-=-=-=-=-=-=-=-=-=-=-=-=-=-=-=-=-=-=-=-=-=-=-=-=-;
     65	    013C			 PROC	Prog1
     66	    013C  B4 02				mov  ah,2
     67	    013E  32 FF				xor  bh,bh
     68	    0140  B6 01				mov  dh,1
     69	    0142  B2 01				mov  dl,1
     70	    0144  CD 10				int  10h
     71	    0146  B4 02				mov  ah,2
     72	    0148  B2 31				mov  dl,31h
     73	    014A  CD 21				int  21h
     74	    014C  EB EE				jmp  Prog1
     75	    014E			 ENDP
     76
     77					 ;=-=-=-=-=-=-=-=-=-=-=-=-=-=-=-=-=-=-=-=-=-=-=-=-=-=-=-=-=-=-=-=-=-=-=-=-=-=-=-;
     78					 ;	Programa 2
     79					 ;=-=-=-=-=-=-=-=-=-=-=-=-=-=-=-=-=-=-=-=-=-=-=-=-=-=-=-=-=-=-=-=-=-=-=-=-=-=-=-;
     80	    014E			 PROC	Prog2
     81	    014E  B4 02				mov  ah,2
     82	    0150  32 FF				xor  bh,bh
     83	    0152  B6 02				mov  dh,2
     84	    0154  B2 02				mov  dl,2
     85	    0156  CD 10				int  10h
     86	    0158  B4 02				mov  ah,2
     87	    015A  B2 32				mov  dl,32h
     88	    015C  CD 21				int  21h
     89	    015E  EB EE				jmp  Prog2
     90	    0160			 ENDP
     91
     92					 ;=-=-=-=-=-=-=-=-=-=-=-=-=-=-=-=-=-=-=-=-=-=-=-=-=-=-=-=-=-=-=-=-=-=-=-=-=-=-=-;
     93					 ;	Programa 3
     94					 ;=-=-=-=-=-=-=-=-=-=-=-=-=-=-=-=-=-=-=-=-=-=-=-=-=-=-=-=-=-=-=-=-=-=-=-=-=-=-=-;
     95	    0160			 PROC	Prog3
     96	    0160  B4 02				mov  ah,2
     97	    0162  32 FF				xor  bh,bh
     98	    0164  B6 03				mov  dh,3
     99	    0166  B2 03				mov  dl,3
    100	    0168  CD 10				int  10h
    101	    016A  B4 02				mov  ah,2
    102	    016C  B2 33				mov  dl,33h
    103	    016E  CD 21				int  21h
    104	    0170  EB EE				jmp  Prog3
    105	    0172			 ENDP
    106
    107					 ;=-=-=-=-=-=-=-=-=-=-=-=-=-=-=-=-=-=-=-=-=-=-=-=-=-=-=-=-=-=-=-=-=-=-=-=-=-=-=-;
    108					 ;	Programa 4
    109					 ;=-=-=-=-=-=-=-=-=-=-=-=-=-=-=-=-=-=-=-=-=-=-=-=-=-=-=-=-=-=-=-=-=-=-=-=-=-=-=-;
    110	    0172			 PROC	Prog4
    111	    0172  B4 02				mov  ah,2
    112	    0174  32 FF				xor  bh,bh
    113	    0176  B6 04				mov  dh,4
    114	    0178  B2 04				mov  dl,4
Turbo Assembler	 Version 3.1	    13/12/96 18:22:41	    Page 3
fver.ASM



    115	    017A  CD 10				int  10h
    116	    017C  B4 02				mov  ah,2
    117	    017E  B2 34				mov  dl,34h
    118	    0180  CD 21				int  21h
    119	    0182  EB EE				jmp  Prog4
    120	    0184			 ENDP
    121
    122
    123					 END
Turbo Assembler	 Version 3.1	    13/12/96 18:22:41	    Page 4
Symbol Table




Symbol Name			  Type	 Value

??DATE				  Text	 "13/12/96"
??FILENAME			  Text	 "fver	  "
??TIME				  Text	 "18:22:41"
??VERSION			  Number 030A
@32BIT				  Text	 0
@@LOOP				  Near	 DGROUP:0138
@CODE				  Text	 DGROUP
@CODESIZE			  Text	 0
@CPU				  Text	 0F8FH
@CURSEG				  Text	 _TEXT
@DATA				  Text	 DGROUP
@DATASIZE			  Text	 0
@FILENAME			  Text	 FVER
@INTERFACE			  Text	 00H
@MODEL				  Text	 1
@STACK				  Text	 DGROUP
@STARTUP			  Near	 DGROUP:0100
@WORDSIZE			  Text	 2
PROG1				  Near	 DGROUP:013C
PROG2				  Near	 DGROUP:014E
PROG3				  Near	 DGROUP:0160
PROG4				  Near	 DGROUP:0172
START				  Near	 DGROUP:0130
THISVERSION			  Number 0002

Groups & Segments		  Bit Size Align  Combine Class

DGROUP				  Group
  _DATA				  16  0000 Word	  Public  DATA
  _TEXT				  16  0184 Word	  Public  CODE
