\relax 
\catcode`"\active
\catcode`:\active
\catcode`;\active
\catcode`!\active
\catcode`?\active
\select@language{english}
\@writefile{toc}{\select@language{english}}
\@writefile{lof}{\select@language{english}}
\@writefile{lot}{\select@language{english}}
\pagelabel{CINTRO}{4}
\pagelabel{INTRODUCTION}{4}
\pagelabel{CRULES}{5}
\pagelabel{RULES}{5}
\pagelabel{ARMIES1}{5}
\pagelabel{ATTACK}{5}
\gdef \LT@i {\LT@entry 
    {2}{186.79999pt}\LT@entry 
    {2}{186.4pt}}
\pagelabel{ATTACK2}{6}
\pagelabel{NEWTURN}{6}
\gdef \LT@ii {\LT@entry 
    {2}{186.79999pt}\LT@entry 
    {2}{186.4pt}}
\pagelabel{CBUGS}{8}
\pagelabel{BUGS}{8}
\pagelabel{CHISTORY}{9}
\pagelabel{HISTORY}{9}
