/* XPM */
static char * barco2h_h_xpm[] = {
"40 20 7 1",
" 	c None",
".	c #00FFFF",
"+	c #000000",
"@	c #00FF00",
"#	c #008000",
"$	c #000080",
"%	c #0000FF",
"...............+......++................",
"+++++...........+.....+++......+++++....",
"+++++++....+++++++++++++++++++++@++++++.",
"++++++++...++++++++++++++++++++++++++++.",
"..+++++++++++++++@@@@@@++++++++++++++++.",
"....+++++++++++++@@@+@@@++++++++++++@+++",
".....+++++++++++++++++++++++++++++@@+@@+",
"......+++++++@@@@@@@@@@@@@@+++++++++++++",
"......+++++++@@@@@@@@@@@@@++++++++++++++",
"++++++++++++++++++++++++++++++++++++####",
".+####+++++++++##########++++###++++###+",
".+####++++$+++++#####$###+++#$###+++++++",
"..++#++++$$#+++++#####$$#+++#####++++++.",
"..+++++++$$##++++#####$$#+++######+++++.",
"..++++++######++++######++++######+++++.",
"....+++#######+++++#####++++#######++++.",
"%%%%+++++%%%%%%+++++%%%%+++%%%%%%%+%+++%",
"%%%%+++%%%+%++%++++++%+++++++%+%++%%+++%",
"%%%%+++%%%+%++%+%++++%+++++++%+%++%%%%%%",
"%%%%%%%%%%%%%%%%%%%%%%%%%%%%%%%%%%%%%%%%"};
