/* XPM */
static char * barco2v_h_xpm[] = {
"20 40 7 1",
" 	c None",
".	c #0000FF",
"+	c #00FFFF",
"@	c #000000",
"#	c #008000",
"$	c #000080",
"%	c #00FF00",
"....++++++@+++++@@@+",
"....++++@@@+++++@@@+",
"....+@@@##@++++@@@@+",
"....+@@@##@++++@@@@+",
".@@@@@@###@+++@@@@@+",
".@@@@@@@##@++@@@@@++",
".@@@@@@@@@@@@@@@@@++",
"...@#@@@@@@@@@@@@+++",
"...@##@@@@@@@@@@++++",
"....##$$@@@@@@@@++++",
".@@.##$$$@@@@@@@++++",
"....####@@@@@@@@@@++",
".@@.###@@@@@@@@@@@++",
".@@.##@@@@@%%@@@@@++",
"....@@@@@@@%%@@@@@++",
".@@@@@@@@#@%%@@@@@+@",
"..@@@@@@##@%%@@@@@@+",
".@@@@@####@%%@%%@@++",
".@@@@#####@%%@%%@@++",
".@@@######@%%@%%@@++",
".@@.######@%%@@%@@++",
"....####$#@%%@%%@@++",
".@@.##$$##@%%@%%@@@@",
".@@.##$$##@%%@%@@@@@",
".@@@@@####@%%@@@@@@+",
".@@@@@@@@@@%%@@@@@++",
".@@@@@@@@@@@%@@@@@++",
".@@.@@@@@@@@@@@@@@++",
".@@.#####@@@@@@@@@++",
"....####$#@@@@@@@@++",
".@@.######@@@@@@@@++",
"....######@@@@@@@@@+",
".@@.#####@@@@@@@@%@+",
".@@.###@@@@@@@@@@@@+",
"...@#@@@@@@@@%@@@@@+",
"....@@@@@@@@@%@@@@@+",
"..@@@@@@@##@@@%@@@++",
"..@@@@@@@##@@%@@@@++",
"..@@@@@@@##@@%@@@@++",
"....++++@@#@@@@+++++"};
