/* XPM */
static char * barco3v_xpm[] = {
"20 60 8 1",
" 	c None",
".	c #0000FF",
"+	c #000000",
"@	c #00FFFF",
"#	c #008000",
"$	c #808080",
"%	c #C0C0C0",
"&	c #00FF00",
".....+@@@@@@@@@@@@@@",
".....+@@@+@@@@@@@@@@",
".....+@@+#+@@@@@@@@@",
".....+@@+#+@@@@@@@@@",
".....+++##+@@@@@@@@@",
"....++####+@@@@@@@@@",
"...++###$#+@@@@@@@@@",
"....#.%%+$+@@@@@@@@@",
"....#.%%+$+@@@@@@@@@",
"...+##%%+$+@@@@@@@@@",
"...+.###%#+@@+@@@@@@",
"....#.####+@@+@@@@@@",
"...+######+@@+@@@@@@",
"...+######+@@+@@@@@@",
"...+#.####+@@+@@@@@@",
"....####$#+@@+@@@@@@",
"...+.#%%+$++++@@@@@@",
"...+#.%%+$++++$@@@@@",
"...+#.%%+$++++$@@@@@",
".....###%#++++$@@@@@",
"...+######++++@@@@@@",
"...+.#####+++@@@@@@@",
"....#.####+@@@@@@@@@",
"....#.####+@@@@@@@@@",
"...+.###$#+@@@@@@@@@",
"....##%%+$+@@@@@@@@@",
".....#%%+$+@@@@@@@@@",
"...+#.##%#+@@@@@@@@@",
"...+#.##%#+@@@@@@@@@",
".....#####+@@@@@@@@@",
"...+######+++@@@@@@@",
"...+######+&&++@@@@@",
"...+#.##$#++++++@@@@",
"...+#.##$#++++++@@@@",
"....##%%+$+&&+&+@@@@",
"...+##%%+$++++&+++++",
"...+.###%#+&&+&+++++",
".....#####++++&+$$$$",
".....#####++++&+$$$$",
"...+#.####+&&+&+%%%%",
"...+.#####++++&+@@@@",
"......####+&&+++@@@%",
"...+####$#++++@@@@%@",
"...+####$#++++@@@@%@",
"...+#.%%+$+@@+@@@@%@",
".....#%%+$++++@@%%@@",
"...+#.##%#+@@+@%@@@@",
"...+#.####++++@%@@@@",
"...+#.####++++@%@@@@",
"...++#####+@@+%@@@@@",
".....+++##+++%@@@@@@",
".....+@@+++@@%@@@@@@",
".....+@@@@+%%@@@@@@@",
".....+@@@@+%%@@@@@@@",
".....+@@@@@@@@@@@@@@",
".....+@@@@@@@@@@@@@@",
".....+@@@@@@@@@@@@@@",
".....+@@@@@@@@@@@@@@",
".....+@@@@@@@@@@@@@@",
".....+@@@@@@@@@@@@@@"};
