/* XPM */
static char * barco3h_t_xpm[] = {
"60 20 8 1",
" 	c None",
".	c #FF0000",
"+	c #000000",
"@	c #808080",
"#	c #C0C0C0",
"$	c #00FF00",
"%	c #008000",
"&	c #0000FF",
"...................................++@@#.#..................",
"...................................++@@#..###...............",
"...................................++@@#.....#..............",
"...................................++@@#.....#..............",
"................................++++++++++....###...........",
".................@@@...........+++$$$$$$$+.......#..........",
"..........+++++++++++..........+++++++++++++++++++##........",
"................++++++........+$++$+$++$+$++.+.++.+.##......",
"................++++++........+$++$+$++$+$++.+.++.+.##......",
"..++++++++++++++++++++++++++++++++++++++++++++++++++++......",
".+%%%%%@@@%%%%%%@@@%%%%%%@@%%%%%%%@@%%%%%%%%@@%%%%%+........",
"..++%%@+++#%%%%@+++#%%%%@++##%%%@@++#%%%%%@@++#%%%%+........",
"....+%%###%%%%%%###%%%%%%##%%%%%%%##%%%%%%%%##%%%%+.........",
"....+%%###%%%%%%###%%%%%%##%%%%%%%##%%%%%%%%##%%%%+.........",
"++++++%&&%%&%%&%%&&%%%&&%%%&&%%%&&%%%%%&%&%%&%&&&%++++++++++",
"&&&&&++%%%&%%%%%&%%&%&%%&%&%%&%%%%%%&&&%&&%%%&%%%+&&&&&&&&&&",
"&&&&&&+&&++&+++&+++&++&&+&&++&++++&++&&++&+++&++++&&&&&&&&&&",
"&&&&&&&&&&&&&&&&&&&&&&&&&&&&&&&&&&&&&&&&&&&&&&&&&&&&&&&&&&&&",
"&&&&&&&&&&&&&&&&&&&&&&&&&&&&&&&&&&&&&&&&&&&&&&&&&&&&&&&&&&&&",
"&&&&&&&&&&&&&&&&&&&&&&&&&&&&&&&&&&&&&&&&&&&&&&&&&&&&&&&&&&&&"};
