/* XPM */
static char *verde_xpm[] = {
/* columns rows colors chars-per-pixel */
"20 20 38 1",
"  c Gray0",
". c #0c0208",
"X c #0c0e04",
"o c #04021c",
"O c #040a1c",
"+ c #041604",
"@ c #04120c",
"# c #041a04",
"$ c #1c0208",
"% c #041e24",
"& c #041a34",
"* c #042607",
"= c #042a04",
"- c #042e07",
"; c #042e14",
": c #043604",
"> c #043a04",
", c #043514",
"< c #042224",
"1 c #04223c",
"2 c #042e34",
"3 c #043224",
"4 c #340204",
"5 c #041644",
"6 c #042644",
"7 c #042e4c",
"8 c #043444",
"9 c #040acc",
"0 c #2622d2",
"q c #2b25d1",
"w c #00ff10",
"e c #249ebc",
"r c #04defc",
"t c #2cd8fc",
"y c #8e5e05",
"u c #8e5f09",
"i c #8e5e0a",
"p c #d4fefc",
/* pixels */
"rrrrrrrrrrrrrrrrrrrr",
"rrrrrrrrrrrrrr%rrrrr",
"rrrrrrrrrrrrr*:rrrrr",
"rrrrrrrrrrrr,w- rrrr",
"rrrrrrrrrrr;ww=w rrr",
"rrrtrrrrrr www>ww rr",
"rr67rrrrrr www-www r",
"rrr12rrrr wwww-www3r",
"rrrr<%rrr2wwww#www8r",
"rrrep@&rr wwww@www r",
"rrr5..Orr     +    r",
"rro$4$Xrrrrrrr rrrrr",
"ryyyyyyyyyyyyyyyyyyy",
"rrryyyyyyyyyyyyyyyyy",
"99q9iuyyyyyyyyyyyyyy",
"q99q9yyyyyyyyyyyyyyq",
"q9999qqq99yyyyyyyyqq",
"q9999qqqq99999990qqq",
"q99999qqqqqqqqqqqqqq",
"qqqq99qqqqqqqqqqqqqq"
};
