ls	4	17
lpr	6	1
dd	5	8
vi	6	1
cpio	5	23
splay	5	3
cat	5	2
ls	4	7
lpr 8 4
ls	8	7
lpr	5	1
dd	5	8
vi	5	1
cpio	4	23
splay	5	3
cat	5	2
ls	6	7
lpr	8	4
dd	5	8
vi	9	40
cpio	5	23
splay	2	3
cpio	1	23
ls	5	7
lpr	5	1
dd	7	8
vi	8	1
cpio	5	23
cat	9	2
dd	5	8
vi	5	40
cpio	5	23
ls	5	7
cpio	5	23
ls	5	7
lpr	5	1
dd	5	8
vi	5	1
cpio	5	23
lpr	5	1
dd	5	8
vi	5	1
cpio	5	23
splay	5	3
cat	5	2
ls	5	7
lpr	5	4
dd	5	8
cpio	5	23
ls	9	7
lpr	9	1
dd	5	8
vi	5	1
cpio	5	23
vi	5	40
ls	5	7
lpr	5	1
dd	5	8
vi	5	1
cpio	5	23
splay	5	3
cat	5	2
ls	5	7
lpr	3	4
dd	5	8
vi	5	40
cpio	5	23
splay	5	3
cat	3	2
cpio	5	23
splay	5	3
cat	5	2
splay	5	3
cat	5	2
ls	5	7
cpio	5	23
ls	5	7
lpr	5	1
dd	5	8
vi	5	1
cpio	5	23
lpr	5	1
dd	5	8
vi	5	1
cpio	5	23
splay	5	3
cat	5	2
ls	5	7
lpr	5	4
dd	5	8
vi	5	40
cpio	5	23
splay	5	3
cat	5	2
ls	5	7
lpr	5	1
dd	5	8
vi	5	1
cpio	5	23
splay	5	3
cat	5	2
ls	5	7
lpr	5	4
dd	5	8
vi	5	40
cpio	5	23
splay	5	3
cat	5	2
