/* XPM */
static char * barco1_t_xpm[] = {
"20 20 34 1",
" 	c None",
".	c #FF0000",
"+	c #041E24",
"@	c #042607",
"#	c #043604",
"$	c #043514",
"%	c #00FF10",
"&	c #042E07",
"*	c #000000",
"=	c #042E14",
"-	c #042A04",
";	c #043A04",
">	c #042644",
",	c #042E4C",
"'	c #04223C",
")	c #042E34",
"!	c #043224",
"~	c #042224",
"{	c #041A04",
"]	c #043444",
"^	c #04120C",
"/	c #041A34",
"(	c #041644",
"_	c #0C0208",
":	c #040A1C",
"<	c #041604",
"[	c #04021C",
"}	c #1C0208",
"|	c #340204",
"1	c #0C0E04",
"2	c #8E5E05",
"3	c #0000FF",
"4	c #8E5E0A",
"5	c #8E5F09",
"....................",
"..............+.....",
".............@#.....",
"............$%&*....",
"...........=%%-%*...",
"..........*%%%;%%*..",
"..>,......*%%%&%%%*.",
"...')....*%%%%&%%%!.",
"....~+...)%%%%{%%%].",
".....^/..*%%%%^%%%*.",
"...(__:..*****<****.",
"..[}|}1.......*.....",
".2222222222222222222",
"...22222222222222222",
"33334522222222222222",
"33333222222222222223",
"33333333332222222233",
"33333333333333333333",
"33333333333333333333",
"33333333333333333333"};
